…
Rank by medical\_specialty at first

``` r
mt %>%
  unnest_tokens(token, transcription) %>%
  anti_join(stop_words,by=c("token"="word"))%>% #word is a column in stop_words
  filter(!(str_detect(token,"\\d+$")))%>%
  count(medical_specialty,token, sort = TRUE) %>%
  group_by(medical_specialty)%>%
  top_n(n=5,wt=n) %>%
  arrange(medical_specialty,desc(n))
```

    ## # A tibble: 210 x 3
    ## # Groups:   medical_specialty [40]
    ##    medical_specialty       token         n
    ##    <chr>                   <chr>     <int>
    ##  1 " Allergy / Immunology" history      38
    ##  2 " Allergy / Immunology" noted        23
    ##  3 " Allergy / Immunology" patient      22
    ##  4 " Allergy / Immunology" allergies    21
    ##  5 " Allergy / Immunology" nasal        13
    ##  6 " Allergy / Immunology" past         13
    ##  7 " Autopsy"              left         83
    ##  8 " Autopsy"              inch         59
    ##  9 " Autopsy"              neck         55
    ## 10 " Autopsy"              anterior     47
    ## # ... with 200 more rows

Rank by n at first

``` r
mt %>%
  unnest_tokens(token, transcription) %>%
  anti_join(stop_words,by=c("token"="word"))%>% #word is a column in stop_words
  filter(!(str_detect(token,"\\d+$")))%>%
  count(medical_specialty,token, sort = TRUE) %>%
  group_by(medical_specialty)%>%
  top_n(n=5,wt=n) %>%
  arrange(desc(n),medical_specialty)
```

    ## # A tibble: 210 x 3
    ## # Groups:   medical_specialty [40]
    ##    medical_specialty             token          n
    ##    <chr>                         <chr>      <int>
    ##  1 " Surgery"                    patient     4856
    ##  2 " Surgery"                    left        3263
    ##  3 " Surgery"                    procedure   3243
    ##  4 " Consult - History and Phy." patient     3057
    ##  5 " Consult - History and Phy." history     2820
    ##  6 " Orthopedic"                 patient     1713
    ##  7 " Surgery"                    anesthesia  1687
    ##  8 " Surgery"                    incision    1641
    ##  9 " Cardiovascular / Pulmonary" left        1550
    ## 10 " Cardiovascular / Pulmonary" patient     1532
    ## # ... with 200 more rows
…
